<svg xmlns="http://www.w3.org/2000/svg" width="38" height="85" viewBox="0 0 38 85">
    <defs>
        <style>
            .cls-1{fill:#e20e17;stroke:#e20e17}.cls-2{fill:#fff}.cls-3{stroke:none}.cls-4{fill:none}
        </style>
    </defs>
    <g id="Group_1285" data-name="Group 1285" transform="rotate(180 224 384.5)">
        <g id="Rectangle_440" class="cls-1" data-name="Rectangle 440">
            <path d="M0 0h38v85H0z" class="cls-3" transform="translate(410 684)"/>
            <path d="M.5.5h37v84H.5z" class="cls-4" transform="translate(410 684)"/>
        </g>
        <g id="Group_1283" data-name="Group 1283" transform="rotate(-90 575.152 158.908)">
            <g id="Group_191" data-name="Group 191">
                <g id="Group_190" data-name="Group 190">
                    <g id="Group_189" data-name="Group 189">
                        <g id="Group_188" data-name="Group 188">
                            <g id="Group_187" data-name="Group 187">
                                <g id="Group_186" data-name="Group 186">
                                    <g id="Group_180" data-name="Group 180" transform="translate(11 6.993)">
                                        <path id="Path_664" d="M57.4 36.4l-.1 9.241 4.38.038a4.128 4.128 0 0 0-1.518-3.766C58.28 40.4 57.4 36.4 57.4 36.4z" class="cls-2" data-name="Path 664" transform="translate(-57.3 -36.4)"/>
                                    </g>
                                    <g id="Group_182" data-name="Group 182" transform="translate(0 6.916)">
                                        <g id="Group_181" data-name="Group 181">
                                            <path id="Path_665" d="M4.531 36l-.1 9.241L.074 45.2a4.091 4.091 0 0 1 1.595-3.727C3.57 39.977 4.531 36 4.531 36z" class="cls-2" data-name="Path 665" transform="translate(-.044 -36)"/>
                                        </g>
                                    </g>
                                    <path id="Path_666" d="M30.251 4.346L27 .1l-3.3 4.188 6.551.077z" class="cls-2" data-name="Path 666" transform="translate(-19.155 -.081)"/>
                                    <path id="Path_667" d="M30.251 4.346L27 .1l-3.3 4.188 6.551.077z" class="cls-2" data-name="Path 667" transform="translate(-19.155 -.081)"/>
                                    <g id="Group_184" data-name="Group 184" transform="translate(4.41 4.208)">
                                        <g id="Group_183" data-name="Group 183">
                                            <path id="Path_668" d="M23.134 21.9L23 34.292l1.729 1.614 3.189.038 1.652-1.5.115-12.469z" class="cls-2" data-name="Path 668" transform="translate(-23 -21.9)"/>
                                        </g>
                                    </g>
                                    <g id="Group_185" data-name="Group 185" transform="translate(6.754)">
                                        <path id="Path_669" d="M36.3 0l-1.1 1.364 2.152.038z" class="cls-2" data-name="Path 669" transform="translate(-35.2)"/>
                                    </g>
                                </g>
                            </g>
                        </g>
                    </g>
                </g>
            </g>
            <g id="Group_193" data-name="Group 193" transform="translate(4.645 18.559)">
                <g id="Group_192" data-name="Group 192">
                    <path id="Path_670" d="M28.866 96.6h-3.209c-4.073 4.323 1.806 6.744 1.806 6.744s5.495-2.444 1.403-6.744z" class="cls-2" data-name="Path 670" transform="translate(-24.22 -96.6)"/>
                </g>
            </g>
        </g>
    </g>
</svg>
