<svg xmlns="http://www.w3.org/2000/svg" id="logo" viewBox="0 0 279.844 85.571">
    <defs>
        <style>
            .cls-1{fill:#fff}.cls-2{fill:#db111f}.cls-3{fill:#e5352b}.cls-10,.cls-11,.cls-4{fill:#f8cf91}.cls-5{fill:#e20e17}.cls-6,.cls-8{fill:#be1823}.cls-10,.cls-6{opacity:.43}.cls-7{fill:#ed6e6b;opacity:.78}.cls-9{fill:#353b45;opacity:.59}.cls-11{opacity:.47}.cls-12{opacity:.41}.cls-13{fill:#ec6632}.cls-14{fill:#f28e3f}.cls-15{fill:#f7a63e}
        </style>
    </defs>
    <path id="Path_1297" d="M188.5 14.8h13.969v45.157H188.5z" class="cls-1" data-name="Path 1297" transform="translate(-66.024 -5.184)"/>
    <path id="Path_1298" d="M210.9 14.8h18.388l7.082 27.484 7.017-27.484h18.323v45.157h-11.436V25.521l-8.837 34.436h-10.33l-8.772-34.436v34.436H210.9z" class="cls-1" data-name="Path 1298" transform="translate(-73.869 -5.184)"/>
    <path id="Path_1299" d="M284.8 44.628l13.255-.845a9.6 9.6 0 0 0 1.754 4.938 7.412 7.412 0 0 0 6.173 2.729 6.654 6.654 0 0 0 4.613-1.429 3.98 3.98 0 0 0 .065-6.367c-1.04-.91-3.379-1.819-7.147-2.6-6.108-1.364-10.461-3.184-13.125-5.458a11.143 11.143 0 0 1-3.963-8.707 11.633 11.633 0 0 1 2.014-6.562 13.444 13.444 0 0 1 6.043-4.873q4.093-1.754 11.111-1.754c5.783 0 10.2 1.1 13.19 3.249 3.054 2.144 4.808 5.588 5.393 10.266l-13.19.78a6.991 6.991 0 0 0-2.209-4.418 7.1 7.1 0 0 0-4.613-1.364 5.293 5.293 0 0 0-3.639 1.04 3.105 3.105 0 0 0-1.234 2.534 2.469 2.469 0 0 0 1.04 1.949c.65.585 2.209 1.17 4.678 1.689a61.092 61.092 0 0 1 13.125 3.963 13.875 13.875 0 0 1 5.783 5 12.477 12.477 0 0 1 1.819 6.692 13.934 13.934 0 0 1-2.4 7.992 15.314 15.314 0 0 1-6.692 5.588 27.543 27.543 0 0 1-10.851 1.884c-7.667 0-12.995-1.494-15.984-4.418a18.5 18.5 0 0 1-5.009-11.498z" class="cls-1" data-name="Path 1299" transform="translate(-99.753 -4.799)"/>
    <path id="Path_1300" d="M345.3 14.8h13.969v45.157H345.3z" class="cls-1" data-name="Path 1300" transform="translate(-120.944 -5.184)"/>
    <path id="Path_1301" d="M367.1 14.8h39.5v9.031l-25.34 26.445h26.315v9.681H364.7V50.6l25.08-26.185H367.1z" class="cls-1" data-name="Path 1301" transform="translate(-127.739 -5.184)"/>
    <path id="Path_1302" d="M160.752 5.683a14.9 14.9 0 0 1-6.108 3.833 13.178 13.178 0 0 1-4.418.65 14.183 14.183 0 0 1-7.732-2.209 13.778 13.778 0 0 1-2.794-2.274l5.133-4.418a5.378 5.378 0 0 0 3.054 1.884 8.108 8.108 0 0 0 2.274.26 7.312 7.312 0 0 0 4.093-1.04 3.564 3.564 0 0 0 1.429-1.17z" class="cls-1" data-name="Path 1302" transform="translate(-48.931 -.42)"/>
    <path id="Path_1303" d="M36.521 46.637a19.887 19.887 0 0 0 4.223-4.937 13.039 13.039 0 0 0-1.1-1.754 12.773 12.773 0 0 0-7.147-4.028 11.157 11.157 0 0 0 4.873-2.989 9.973 9.973 0 0 0 2.469-6.887 10.4 10.4 0 0 0-3.509-7.992c-2.343-2.15-5.657-3.25-10.01-3.25H.2v45.157h24.105a60.042 60.042 0 0 0 6.108-.585 15.254 15.254 0 0 1 6.108-12.735zM14.234 23.961h6.173a7.179 7.179 0 0 1 4.483 1.1 3.639 3.639 0 0 1 1.3 3.054 4.158 4.158 0 0 1-1.3 3.249c-.845.78-2.339 1.1-4.548 1.1H14.3v-8.503zM26.45 48.976c-.975.845-2.664 1.3-5.068 1.3h-7.148v-9.161h7.082c2.469 0 4.158.39 5.133 1.235a3.982 3.982 0 0 1 1.495 3.25 4.242 4.242 0 0 1-1.494 3.376z" class="cls-1" data-name="Path 1303" transform="translate(-.07 -5.184)"/>
    <g id="Group_1158" data-name="Group 1158" transform="translate(33.295)">
        <g id="Group_1157" data-name="Group 1157">
            <g id="Group_1156" data-name="Group 1156">
                <g id="Group_1154" data-name="Group 1154">
                    <g id="Group_1152" data-name="Group 1152">
                        <path id="Path_1304" d="M108.625 36.4l-.325 31.253 14.814.13a13.96 13.96 0 0 0-5.133-12.735c-6.367-5.133-9.356-18.648-9.356-18.648z" class="cls-2" data-name="Path 1304" transform="translate(-71.228 -12.749)"/>
                        <g id="Group_1148" data-name="Group 1148" transform="translate(0 23.391)">
                            <g id="Group_1147" data-name="Group 1147">
                                <path id="Path_1305" d="M66.419 36l-.325 31.253-14.749-.13a13.835 13.835 0 0 1 5.393-12.6C63.171 49.45 66.419 36 66.419 36z" class="cls-3" data-name="Path 1305" transform="translate(-51.244 -36)"/>
                            </g>
                        </g>
                        <path id="Path_1306" d="M96.956 14.459L85.976.1 74.8 14.264l22.156.26z" class="cls-4" data-name="Path 1306" transform="translate(-59.494 -.035)"/>
                        <path id="Path_1307" d="M96.956 14.459L85.976.1 74.8 14.264l22.156.26z" class="cls-4" data-name="Path 1307" transform="translate(-59.494 -.035)"/>
                        <g id="Group_1149" data-name="Group 1149" transform="translate(14.851 14.229)">
                            <path id="Path_1308" d="M74.555 21.9L74.1 63.808l5.848 5.458 10.786.13 5.588-5.068.39-42.168z" class="cls-5" data-name="Path 1308" transform="translate(-74.1 -21.9)"/>
                            <path id="Path_1309" d="M100.12 22.2l-.52 47.236v.064h.065l5.588-5.068.39-42.168z" class="cls-6" data-name="Path 1309" transform="translate(-83.032 -22.005)"/>
                            <path id="Path_1310" d="M80.338 21.965l-5.783-.065-.455 41.908 5.718 5.392z" class="cls-7" data-name="Path 1310" transform="translate(-74.1 -21.9)"/>
                        </g>
                        <g id="Group_1150" data-name="Group 1150" transform="translate(22.778)">
                            <path id="Path_1311" d="M90 0l-3.7 4.613 7.277.13z" class="cls-8" data-name="Path 1311" transform="translate(-86.3)"/>
                            <path id="Path_1312" d="M92 0v4.678l3.574.065z" class="cls-9" data-name="Path 1312" transform="translate(-88.296)"/>
                        </g>
                        <g id="Group_1151" data-name="Group 1151" transform="translate(15.306 4.678)">
                            <path id="Path_1313" d="M89.549 7.265L82.272 7.2 74.8 16.751l22.156.26v-.065z" class="cls-4" data-name="Path 1313" transform="translate(-74.8 -7.2)"/>
                            <path id="Path_1314" d="M95.5 7.265L91.8 7.2l5.588 9.681v.065l5.523.065v-.065z" class="cls-10" data-name="Path 1314" transform="translate(-80.754 -7.2)"/>
                            <path id="Path_1315" d="M85.846 7.2h-3.574L74.8 16.751l5.783.065z" class="cls-11" data-name="Path 1315" transform="translate(-74.8 -7.2)"/>
                        </g>
                    </g>
                    <g id="Group_1153" class="cls-12" data-name="Group 1153" transform="translate(20.569 14.944)">
                        <path id="Path_1316" d="M83.485 23c.065 3.9.13 7.8.13 11.7s0 7.8-.065 11.7l-.195 11.7-.13 5.848-.195 5.848c-.065-1.949-.065-3.9-.13-5.848v-5.862c0-3.9 0-7.8.065-11.7l.195-11.7c.065-3.954.13-7.853.325-11.686z" class="cls-1" data-name="Path 1316" transform="translate(-82.9 -23)"/>
                    </g>
                </g>
                <g id="Group_1155" class="cls-12" data-name="Group 1155" transform="translate(31.289 15.139)">
                    <path id="Path_1317" d="M99.985 23.3c.065 3.9.13 7.8.13 11.7s0 7.8-.065 11.7l-.195 11.7-.13 5.848-.195 5.848c-.065-1.949-.065-3.9-.13-5.848v-5.862c0-3.9 0-7.8.065-11.7L99.66 35c.065-3.968.13-7.8.325-11.7z" class="cls-1" data-name="Path 1317" transform="translate(-99.4 -23.3)"/>
                </g>
            </g>
        </g>
    </g>
    <g id="Group_1159" data-name="Group 1159" transform="translate(48.939 62.765)">
        <path id="Path_1318" d="M91.031 96.6H80.18c-13.775 14.619 6.108 22.806 6.108 22.806s18.582-8.252 4.743-22.806z" class="cls-13" data-name="Path 1318" transform="translate(-75.32 -96.6)"/>
        <path id="Path_1319" d="M91.3 96.6h-6.106c-7.017 11.63 3.444 18.128 3.444 18.128S98.319 108.1 91.3 96.6z" class="cls-14" data-name="Path 1319" transform="translate(-77.93 -96.6)"/>
        <path id="Path_1320" d="M91.421 96.6h-2.794c-3.509 8.317 1.494 12.995 1.494 12.995s4.809-4.743 1.3-12.995z" class="cls-15" data-name="Path 1320" transform="translate(-79.544 -96.6)"/>
    </g>
    <path id="Path_1321" d="M142.83 33.842v9.421h9.356v4.223a23.253 23.253 0 0 1-4.873 2.339 14.679 14.679 0 0 1-4.483.65 9.617 9.617 0 0 1-7.667-3.119c-1.819-2.079-2.729-5.588-2.729-10.461 0-4.613.91-7.992 2.729-10.071a9.139 9.139 0 0 1 7.342-3.184 8.652 8.652 0 0 1 5.068 1.364 7.247 7.247 0 0 1 2.794 3.9l13.45-2.4a18.92 18.92 0 0 0-3.7-7.212 14.789 14.789 0 0 0-6.173-4.223c-2.469-.91-6.238-1.364-11.176-1.364-5.2 0-9.291.715-12.345 2.209a20.229 20.229 0 0 0-8.966 8.317 26.16 26.16 0 0 0-3.057 12.86c0 1.04.065 2.014.13 2.989a22.516 22.516 0 0 0 5.133 6.5 16.038 16.038 0 0 1 6.043 11.435c3.314 1.624 7.472 2.4 12.475 2.4a38.757 38.757 0 0 0 11.306-1.494 45.934 45.934 0 0 0 10.98-5.721V33.842z" class="cls-1" data-name="Path 1321" transform="translate(-41.47 -4.799)"/>
    <path id="Path_1322" d="M12.995 96.6l8.057 21.506h-4.938l-1.625-4.806H6.432l-1.689 4.808H0L8.122 96.6zm.26 13.19l-2.729-7.862h-.065l-2.794 7.862z" class="cls-5" data-name="Path 1322" transform="translate(0 -33.835)"/>
    <path id="Path_1323" d="M38.4 100.563V96.6h17.608v3.963h-6.432v17.543h-4.744v-17.543z" class="cls-5" data-name="Path 1323" transform="translate(-13.45 -33.835)"/>
    <path id="Path_1324" d="M130.343 96.6v17.543H140.8v3.963h-15.2V96.6z" class="cls-5" data-name="Path 1324" transform="translate(-43.992 -33.835)"/>
    <path id="Path_1325" d="M154.4 96.6h5.328l5 8.512 5-8.512H175l-8 13.255v8.252h-4.743v-8.382z" class="cls-5" data-name="Path 1325" transform="translate(-54.08 -33.835)"/>
    <path id="Path_1326" d="M215.049 96.6v3.963h-11.37v4.613h10.4v3.7h-10.4v5.263h11.63v3.963H199V96.6z" class="cls-5" data-name="Path 1326" transform="translate(-69.701 -33.835)"/>
</svg>
